Twitter stock market sentiment analysis
…
## [1] "Wall Street falls on dimmed stimulus hopes https://t.co/bfShNI9Rez @ReutersMoney @GerberKawasaki $JPM $BAC $WFC $AMC $UNH"

After Pre-processing:

twt.losers$stripped_text[50]

## [1] "Wall Street falls on dimmed stimulus hopes  @ReutersMoney @GerberKawasaki $JPM $BAC $WFC $AMC $UNH"

We will now display the Cleaned data frame for Gainers and Losers having terms stored after pre-processing.

Clean Data Frame of Gainers Tweets terms:

cleaned_twt.gainers

## # A tibble: 7,872 x 1
##    word    
##    <chr>   
##  1 found   
##  2 staff   
##  3 engineer
##  4 tesla   
##  5 tsla    
##  6 based   
##  7 zealand 
##  8 cool    
##  9 global  
## 10 company 
## # ... with 7,862 more rows

Clean Data Frame of Losers Tweets terms:

cleaned_twt.losers

## # A tibble: 6,736 x 1
##    word    
##    <chr>   
##  1 wfc     
##  2 article 
##  3 fargo   
##  4 cfo     
##  5 consumer
##  6 spending
##  7 picking 
##  8 wfc     
##  9 related 
## 10 news    
## # ... with 6,726 more rows
…
